Plots and models of variant effect sizes
…
GWAS_ratios_plot <- SNP_clumps %>%
  rename(pheno1 = beta_female_early_mashr_ED, 
         pheno2 = beta_female_late_mashr_ED, 
         pheno3 = beta_male_early_mashr_ED, 
         pheno4 = beta_male_late_mashr_ED,
         LFSR1 = LFSR_female_early_mashr_ED, 
         LFSR2 = LFSR_female_late_mashr_ED, 
         LFSR3 = LFSR_male_early_mashr_ED, 
         LFSR4 = LFSR_male_late_mashr_ED,
         identifier = SNP_clump) %>%
  make_evidence_ratio_plot(ymax = 10000, ylab = "Number of loci")

# A tibble: 4,829,428 x 3
   identifier                     trait                  evidence_ratio
   <chr>                          <fct>                           <dbl>
 1 3L_18098299_SNP                Inter-sex (early life)          0.127
 2 2L_4378111_SNP, 2L_4378127_SNP Inter-sex (early life)          0.275
 3 2R_12475593_SNP                Inter-sex (early life)          0.306
 4 2R_12475593_SNP                Inter-sex (late life)           0.323
 5 X_15519378_SNP                 Inter-sex (early life)          0.327
 6 X_6233582_SNP                  Inter-sex (early life)          0.335
 7 3L_18098299_SNP                Inter-sex (late life)           0.347
 8 3R_23687589_SNP                Inter-sex (early life)          0.360
 9 2L_4378050_SNP                 Inter-sex (early life)          0.364
10 2L_4674413_SNP                 Inter-sex (early life)          0.367
# … with 4,829,418 more rows
…
TWAS_ratios_plot <- TWAS_mashr_results %>%
  rename(pheno1 = ED_beta_FE, 
         pheno2 = ED_beta_FL, 
         pheno3 = ED_beta_ME, 
         pheno4 = ED_beta_ML,
         LFSR1 = ED_LFSR_FE, 
         LFSR2 = ED_LFSR_FL, 
         LFSR3 = ED_LFSR_ME, 
         LFSR4 = ED_LFSR_ML,
         identifier = FBID) %>%
  make_evidence_ratio_plot(ymax = 500, ylab = "Number of transcripts")

# A tibble: 57,144 x 3
   identifier  trait                  evidence_ratio
   <chr>       <fct>                           <dbl>
 1 FBgn0013275 Inter-sex (early life)        0.00849
 2 FBgn0013275 Inter-sex (late life)         0.00950
 3 FBgn0263092 Inter-sex (early life)        0.00991
 4 FBgn0263092 Inter-sex (late life)         0.0109 
 5 FBgn0261615 Inter-sex (early life)        0.0118 
 6 FBgn0261615 Inter-sex (late life)         0.0144 
 7 FBgn0000022 Inter-sex (late life)         0.0154 
 8 FBgn0000022 Inter-sex (early life)        0.0168 
 9 FBgn0027330 Inter-sex (late life)         0.0191 
10 FBgn0027330 Inter-sex (early life)        0.0193 
# … with 57,134 more rows
…
